Research Methods HS23 - Stat8: Lösung
…
Bitte erklärt und begründet die einzelnen Schritte, die ihr unternehmt, um zu diesem Ergebnis zu kommen. Dazu erstellt bitte ein Word-Dokument, in das ihr Schritt für Schritt den verwendeten R-Code, die dazu gehörigen Ausgaben von R, eure Interpretation derselben und die sich ergebenden Schlussfolgerungen für das weitere Vorgehen dokumentieren.

Formuliert abschliessend einen Methoden- und Ergebnisteil (ggf. incl. adäquaten Abbildungen) zu dieser Untersuchung in der Form einer wissenschaftlichen Arbeit (ausformulierte schriftliche Zusammenfassung, mit je einem Absatz von ca. 60-100 Worten, resp. 3-8 Sätzen für den Methoden- und Ergebnisteil). D. h. alle wichtigen Informationen sollten enthalten sein, unnötige Redundanz dagegen vermieden werden.

Zu erstellen sind (a) Ein lauffähiges R-Skript; (b) begründeter Lösungsweg (Kombination aus R-Code, R Output und dessen Interpretation) und (c) ausformulierter Methoden- und Ergebnisteil (für eine wiss. Arbeit).

Lösung

library("readr")

crime <- read_delim("datasets/stat5-8/crime2.csv", ";")

crime

# A tibble: 50 × 8
   ...1  Murder  Rape Robbery Assault Burglary Theft Vehicle
   <chr>  <dbl> <dbl>   <dbl>   <dbl>    <dbl> <dbl>   <dbl>
 1 ME       2    14.8      28     102      803  2347     164
 2 NH       2.2  21.5      24      92      755  2208     228
 3 VT       2    21.8      22     103      949  2697     181
 4 MA       3.6  29.7     193     331     1071  2189     906
 5 RI       3.5  21.4     119     192     1294  2568     705
 6 CT       4.6  23.8     192     205     1198  2758     447
 7 NY      10.7  30.5     514     431     1221  2924     637
 8 NJ       5.2  33.2     269     265     1071  2822     776
 9 PA       5.5  25.1     152     176      735  1654     354
10 OH       5.5  38.6     142     235      988  2574     376
# ℹ 40 more rows

Im mitgelieferten R-Skript habe ich die folgenden Analysen zunächst mit untransformierten, dann mit standardisierten Kriminalitätsraten berechnet. Ihr könnt die Ergebnisse vergleichen und seht, dass sie sehr unterschiedlich ausfallen.

crimez <- crime
crimez[, c(2:8)] <- lapply(crime[, c(2:8)], scale)
crimez

# A tibble: 50 × 8
   ...1  Murder[,1] Rape[,1] Robbery[,1] Assault[,1] Burglary[,1] Theft[,1]
   <chr>      <dbl>    <dbl>       <dbl>       <dbl>        <dbl>     <dbl>
 1 ME        -1.38   -1.32     -1.05         -1.25       -0.939    -0.760  
 2 NH        -1.32   -0.853    -1.08         -1.32       -1.05     -0.945  
 3 VT        -1.38   -0.832    -1.10         -1.24       -0.591    -0.294  
 4 MA        -0.919  -0.287     0.467         0.398      -0.300    -0.970  
 5 RI        -0.948  -0.860    -0.212        -0.601       0.232    -0.466  
 6 CT        -0.630  -0.694     0.458        -0.508       0.00320  -0.213  
 7 NY         1.14   -0.232     3.41          1.12        0.0580    0.00774
 8 NJ        -0.456  -0.0452    1.16         -0.0766     -0.300    -0.128  
 9 PA        -0.369  -0.604     0.0908       -0.716      -1.10     -1.68   
10 OH        -0.369   0.328    -0.000917     -0.292      -0.498    -0.458  
# ℹ 40 more rows
# ℹ 1 more variable: Vehicle <dbl[,1]>
…
